{
    "Image_Build_IDs": {
        "adsp": "ADSP.HT.5.0.1-00196-SM8150-1", 
        "aop": "AOP.HO.1.1-00225-SM8150AAAAANAZO-1", 
        "apps": "LA.UM.9.1.r1-07300-SMxxx0.0-1", 
        "apps_LE": "LE.UM.2.4.2-00600-genericarmv8-64-1", 
        "apps_qssi": "LA.QSSI.11.0.r1-06600-qssi.0-1", 
        "boot": "BOOT.XF.3.0-00571-SM8150LZB-4", 
        "btfm": "BTFM.CHE.2.1.5-00254-QCACHROMZ-1", 
        "cdsp": "CDSP.HT.2.0.1-00172-SM8150-2", 
        "common": "SM8150.LA.2.0.1-00055-STD.PROD-1", 
        "glue": "GLUE.SM8150_LA.2.0.1-00020-NOOP_TEST-1", 
        "modem": "MPSS.HE.1.0.c10-00031-SM8150_GEN_PACK-1", 
        "npu": "NPU.FW.1.0-00040-SM8150-1", 
        "slpi": "SLPI.HY.2.2-00121-SM8150AZL-1", 
        "spss": "SPSS.A1.1.2-00098-SM8150AAAAANAZS-1", 
        "tz": "TZ.XF.5.2-00209-SM8150AAAAANAZT-1", 
        "tz_apps": "TZ.APPS.2.0-00101-SM8150AAAAANAZT-1", 
        "video": "VIDEO.IR.1.2-00045-PROD-1", 
        "wapi": "WLAN_ADDON.HL.1.0-00052-CNSS_RMZ_WAPI-1", 
        "wdsp": "WDSP.9340.2.0-00046-W9340AAAAAAAZQ-1", 
        "wgig": "WIGIG.TLN.7.4-00018-WIGIGTLNZ-1", 
        "wlan": "WLAN.HL.3.2.0-00947-QCAHLSWMTPLZ-1"
    }, 
    "Metabuild_Info": {
        "Meta_Build_ID": "SM8150.LA.2.0.1-00055-STD.PROD-1", 
        "Product_Flavor": "asic", 
        "Time_Stamp": "2021-08-14 16:38:26"
    }, 
    "Version": "1.0"
}